^D:\360\MYCOURCES\CV\HW1_TANGLE_COLORTRANSFER\HW1_TANGLE_CT\X64\RELEASE\COLORTRANSFER.OBJ|D:\360\MYCOURCES\CV\HW1_TANGLE_COLORTRANSFER\HW1_TANGLE_CT\X64\RELEASE\MAIN.OBJ
C:\WINDOWS\GLOBALIZATION\SORTING\SORTDEFAULT.NLS
D:\360\MYCOURCES\CV\HW1_TANGLE_COLORTRANSFER\HW1_TANGLE_CT\LIB\OPENCV_CORE247.LIB
D:\360\MYCOURCES\CV\HW1_TANGLE_COLORTRANSFER\HW1_TANGLE_CT\LIB\OPENCV_HIGHGUI247.LIB
C:\PROGRAM FILES (X86)\MICROSOFT SDKS\WINDOWS\V7.0A\LIB\X64\KERNEL32.LIB
C:\PROGRAM FILES (X86)\MICROSOFT SDKS\WINDOWS\V7.0A\LIB\X64\USER32.LIB
C:\PROGRAM FILES (X86)\MICROSOFT SDKS\WINDOWS\V7.0A\LIB\X64\GDI32.LIB
C:\PROGRAM FILES (X86)\MICROSOFT SDKS\WINDOWS\V7.0A\LIB\X64\WINSPOOL.LIB
C:\PROGRAM FILES (X86)\MICROSOFT SDKS\WINDOWS\V7.0A\LIB\X64\COMDLG32.LIB
C:\PROGRAM FILES (X86)\MICROSOFT SDKS\WINDOWS\V7.0A\LIB\X64\ADVAPI32.LIB
C:\PROGRAM FILES (X86)\MICROSOFT SDKS\WINDOWS\V7.0A\LIB\X64\SHELL32.LIB
C:\PROGRAM FILES (X86)\MICROSOFT SDKS\WINDOWS\V7.0A\LIB\X64\OLE32.LIB
C:\PROGRAM FILES (X86)\MICROSOFT SDKS\WINDOWS\V7.0A\LIB\X64\OLEAUT32.LIB
C:\PROGRAM FILES (X86)\MICROSOFT SDKS\WINDOWS\V7.0A\LIB\X64\UUID.LIB
C:\PROGRAM FILES (X86)\MICROSOFT SDKS\WINDOWS\V7.0A\LIB\X64\ODBC32.LIB
C:\PROGRAM FILES (X86)\MICROSOFT SDKS\WINDOWS\V7.0A\LIB\X64\ODBCCP32.LIB
D:\360\MYCOURCES\CV\HW1_TANGLE_COLORTRANSFER\HW1_TANGLE_CT\X64\RELEASE\COLORTRANSFER.OBJ
D:\360\MYCOURCES\CV\HW1_TANGLE_COLORTRANSFER\HW1_TANGLE_CT\X64\RELEASE\MAIN.OBJ
C:\PROGRAM FILES (X86)\MICROSOFT VISUAL STUDIO 10.0\VC\BIN\X86_AMD64\C2.DLL
C:\PROGRAM FILES (X86)\MICROSOFT VISUAL STUDIO 10.0\VC\LIB\AMD64\MSVCPRT.LIB
C:\PROGRAM FILES (X86)\MICROSOFT VISUAL STUDIO 10.0\VC\LIB\AMD64\MSVCRT.LIB
C:\PROGRAM FILES (X86)\MICROSOFT VISUAL STUDIO 10.0\VC\LIB\AMD64\OLDNAMES.LIB
C:\PROGRAM FILES (X86)\MICROSOFT VISUAL STUDIO 10.0\VC\BIN\X86_AMD64\2052\LINKUI.DLL
C:\WINDOWS\SYSTEM32\TZRES.DLL
