^D:\360\MYCOURCES\CV\HW1_TANGLE_COLORTRANSFER\HW1_TANGLE_COLORTRANSFER\COLORTRANSFER.CPP
/c /I./include/opencv /ZI /nologo /W3 /WX- /Od /Oy- /D _MBCS /Gm /EHsc /RTC1 /MDd /GS /fp:precise /Zc:wchar_t /Zc:forScope /Fo"Debug\\" /Fd"Debug\vc100.pdb" /Gd /TP /analyze- /errorReport:prompt D:\360\MYCOURCES\CV\HW1_TANGLE_COLORTRANSFER\HW1_TANGLE_COLORTRANSFER\COLORTRANSFER.CPP
^D:\360\MYCOURCES\CV\HW1_TANGLE_COLORTRANSFER\HW1_TANGLE_COLORTRANSFER\MAIN.CPP
/c /I./include/opencv /ZI /nologo /W3 /WX- /Od /Oy- /D _MBCS /Gm /EHsc /RTC1 /MDd /GS /fp:precise /Zc:wchar_t /Zc:forScope /Fo"Debug\\" /Fd"Debug\vc100.pdb" /Gd /TP /analyze- /errorReport:prompt D:\360\MYCOURCES\CV\HW1_TANGLE_COLORTRANSFER\HW1_TANGLE_COLORTRANSFER\MAIN.CPP
